Scraping Craigslist Posts | Nikhil Kaza
…
latlongs <- 
  map_dfr(urls, function(x){
    xml2::read_html(x) %>% 
      html_node("#map") %>%
      html_attrs() %>%
      t() %>%
      as_tibble() %>%
      select_at(vars(starts_with("data-"))) %>%
      mutate_all(as.numeric)
  }
  )

latlongs
# # A tibble: 120 x 3
#    `data-latitude` `data-longitude` `data-accuracy`
#              <dbl>            <dbl>           <dbl>
#  1            42.4            -71.1              22
#  2            42.6            -70.9              10
#  3            42.4            -71.1              10
#  4            42.3            -71.1              10
#  5            42.3            -71.2              10
#  6            42.7            -71.1               5
#  7            42.7            -71.1               5
#  8            42.7            -71.2              22
#  9            42.4            -71.1              10
# 10            42.6            -71.2              22
# # … with 110 more rows
…
