Transit Accessibility Using GTFS | Nikhil Kaza
…
# 2 2_merged_… 2022-11-28 2023-03-12      0       0       0       0      0       1
# 3 3_merged_… 2022-11-28 2023-03-12      0       0       0       0      0       0
# 4 1_merged_… 2022-11-28 2023-03-12      1       1       1       1      1       0
# 5 3_merged_… 2022-09-26 2022-11-27      0       0       0       0      0       0
# 6 1_merged_… 2022-09-26 2022-11-27      1       1       1       1      1       0
# # … with 1 more variable: sunday <int>, and abbreviated variable names
# #   ¹​wednesday, ²​thursday, ³​saturday
# 
# $stops
# Simple feature collection with 5315 features and 7 fields
# Geometry type: POINT
# Dimension:     XY
# Bounding box:  xmin: -90.66209 ymin: 38.46975 xmax: -89.87466 ymax: 38.82565
# Geodetic CRS:  WGS 84
# # A tibble: 5,315 × 8
#    wheelchair_boarding zone_id stop_id stop_desc         stop_…¹ locat…² stop_…³
#  *               <int> <chr>   <chr>   <chr>             <chr>     <int> <chr>  
#  1                   2 ""      9160    FAR SIDE NATURAL… NATURA…       0 9160   
#  2                   2 ""      16079   FAR SIDE KINGSHI… KINGSH…       0 16079  
#  3                   2 ""      4446    FAR SIDE WOODSON… WOODSO…       0 4446   
#  4                   2 ""      5745    NEAR SIDE 546 NO… 546 NO…       0 5745   
#  5                   2 ""      16076   FAR SIDE CRAIG @… CRAIG …       0 16076  
#  6                   2 ""      16075   FAR SIDE CRAIG @… CRAIG …       0 16075  
#  7                   2 ""      16074   MID-BLOCK NATURA… NATURA…       0 16074  
#  8                  NA ""      11542   NEAR SIDE MEMORI… MEMORI…       0 11542  
#  9                  NA ""      11543   NEAR SIDE MEMORI… MEMORI…       0 11543  
# 10                   1 ""      4024    NEAR SIDE CHEROK… CHEROK…       0 4024   
# # … with 5,305 more rows, 1 more variable: geometry <POINT [°]>, and
# #   abbreviated variable names ¹​stop_name, ²​location_type, ³​stop_code
# 
# $routes
# # A tibble: 121 × 7
#    route_long_name               route…¹ route…² agenc…³ route…⁴ route…⁵ route…⁶
#    <chr>                           <int> <chr>   <chr>   <chr>   <chr>   <chr>  
#  1 MetroLink Red Line                  2 f6f6fc  ""      18164R  CC0033  MLR    
#  2 OFallon-Fairview Heights            3 000000  ""      18093   FFFFFF  12     
#  3 Washington Park                     3 000000  ""      18092   FFFFFF  9      
#  4 Alta Sita                           3 000000  ""      18091   FFFFFF  8      
#  5 Rosemont                            3 000000  ""      18090   FFFFFF  6      
#  6 St Clair Square                     3 000000  ""      18097   FFFFFF  16     
#  7 Belleville-Shiloh-OFallon           3 000000  ""      18096   FFFFFF  15     
#  8 Memorial Hosp-Westfield Plaza       3 000000  ""      18095   FFFFFF  14     
#  9 Caseyville-Marybelle                3 000000  ""      18094   FFFFFF  13     
# 10 OFallon-Fairview Heights            3 000000  ""      18158   FFFFFF  12     
# # … with 111 more rows, and abbreviated variable names ¹​route_type,
# #   ²​route_text_color, ³​agency_id, ⁴​route_id, ⁵​route_color, ⁶​route_short_name
# 
# $trips
# # A tibble: 17,704 × 8
#    block_id route_id wheelchair_access…¹ direc…² trip_…³ shape…⁴ servi…⁵ trip_id
#    <chr>    <chr>                  <int>   <int> <chr>   <chr>   <chr>   <chr>  
#  1 b_65655  18076                      1       0 TO NOR… 110261  2_merg… 3020482
#  2 b_65657  18076                      1       0 TO NOR… 110261  2_merg… 3020483
#  3 b_65655  18076                      1       0 TO NOR… 110261  2_merg… 3020480
#  4 b_65654  18076                      1       0 TO NOR… 110261  2_merg… 3020481
#  5 b_65657  18076                      1       0 TO NOR… 110261  2_merg… 3020486
#  6 b_65657  18076                      1       0 TO NOR… 110261  2_merg… 3020487
#  7 b_65657  18076                      1       0 TO NOR… 110261  2_merg… 3020484
#  8 b_65656  18076                      1       0 TO NOR… 110261  2_merg… 3020485
#  9 b_65656  18076                      1       0 TO NOR… 110261  2_merg… 3020488
# 10 b_65652  18076                      1       0 TO NOR… 110259  2_merg… 3020489
# # … with 17,694 more rows, and abbreviated variable names
# #   ¹​wheelchair_accessible, ²​direction_id, ³​trip_headsign, ⁴​shape_id,
# #   ⁵​service_id
# 
# $stop_times
# # A tibble: 945,643 × 10
#    trip_id arrival_time depart…¹ stop_id stop_…² stop_…³ picku…⁴ drop_…⁵ shape…⁶
#    <chr>   <time>       <time>   <chr>     <int> <chr>     <int>   <int>   <dbl>
#  1 3020482 16:50        16:50    16146         1 ""           NA      NA     NA 
#  2 3020482 16:51        16:51    16301         2 ""           NA      NA    677.
#  3 3020482 16:51        16:51    16281         3 ""           NA      NA   1000.
#  4 3020482 16:52        16:52    10164         4 ""           NA      NA   1574.
#  5 3020482 16:54        16:54    15534         5 ""           NA      NA   2670.
#  6 3020482 16:55        16:55    14708         6 ""           NA      NA   3301.
#  7 3020482 16:56        16:56    6691          7 ""           NA      NA   3866.
#  8 3020482 16:57        16:57    6693          8 ""           NA      NA   4196.
#  9 3020482 16:57        16:57    6694          9 ""           NA      NA   4474.
# 10 3020482 16:58        16:58    6695         10 ""           NA      NA   4836.
# # … with 945,633 more rows, 1 more variable: timepoint <int>, and abbreviated
# #   variable names ¹​departure_time, ²​stop_sequence, ³​stop_headsign,
# #   ⁴​pickup_type, ⁵​drop_off_type, ⁶​shape_dist_traveled
# 
# $shapes
…
#    shape_id                       geometry
# 1    110120 LINESTRING (-90.30889 38.64...
# 2    110121 LINESTRING (-90.30062 38.65...
# 3    110122 LINESTRING (-90.2599 38.635...
# 4    110124 LINESTRING (-90.30172 38.68...
# 5    110125 LINESTRING (-90.30172 38.68...
# 6    110126 LINESTRING (-90.30172 38.68...
# 7    110129 LINESTRING (-90.33777 38.62...
# 8    110131 LINESTRING (-90.30814 38.64...
# 9    110132 LINESTRING (-90.315 38.7197...
# 10   110134 LINESTRING (-90.20271 38.62...
# 
# $.
# $.$dates_services
# # A tibble: 168 × 2
#    date       service_id      
#    <date>     <chr>           
#  1 2022-09-26 1_merged_3039414
#  2 2022-09-27 1_merged_3039414
#  3 2022-09-28 1_merged_3039414
#  4 2022-09-29 1_merged_3039414
#  5 2022-09-30 1_merged_3039414
#  6 2022-10-01 2_merged_3039416
#  7 2022-10-02 3_merged_3039415
#  8 2022-10-03 1_merged_3039414
#  9 2022-10-04 1_merged_3039414
# 10 2022-10-05 1_merged_3039414
# # … with 158 more rows
…
