Urban Morphology & Landscape Metrics | Nikhil Kaza
…
A naive urban landscape metrics are ready to be calculated from the binary image after checking for the landscape.

For the sake of brevity, I am only checking the area metrics. I am going to ignore patches of class 0 (background).

library(landscapemetrics)
library(skimr)

options_landscapemetrics(to_disk = TRUE)
check_landscape(urb_lc)
#   layer       crs units   class n_classes OK
# 1     1 projected     m integer         2  ✓

naivemetrics1 <- calculate_lsm(urb_lc, what = "lsm_p_area")  
naivemetrics1  %>% filter(class==1) %>% arrange(desc(value))
# # A tibble: 400 x 6
#    layer level class    id metric   value
#    <int> <chr> <int> <int> <chr>    <dbl>
#  1     1 patch     1   728 area   25261. 
#  2     1 patch     1   865 area     506. 
#  3     1 patch     1  1077 area     163. 
#  4     1 patch     1   956 area     106. 
#  5     1 patch     1   736 area      36.4
#  6     1 patch     1  1119 area      22.3
#  7     1 patch     1  1066 area      18.4
#  8     1 patch     1   936 area      18.3
#  9     1 patch     1   993 area      17.7
# 10     1 patch     1   746 area      16.1
# # … with 390 more rows
…
metrics2 <- calculate_lsm(urb_lc2, what = "lsm_p_area") 
metrics2  %>% arrange(desc(value))
# # A tibble: 3,288 x 6
#    layer level class    id metric  value
#    <int> <chr> <int> <int> <chr>   <dbl>
#  1     1 patch     0     1 area   57864.
#  2     1 patch     1  1204 area    1058.
#  3     1 patch     1  1496 area     796.
#  4     1 patch     1   988 area     473.
#  5     1 patch     1  1088 area     468.
#  6     1 patch     1  1824 area     365.
#  7     1 patch     1  1414 area     340.
#  8     1 patch     1  1797 area     325.
#  9     1 patch     1  1194 area     293.
# 10     1 patch     1   837 area     290.
# # … with 3,278 more rows
…
