Exploratory Data Analysis and Visualisation | Nikhil Kaza
…
The space in the column names are problematic, so lets rename columns

ozone_airq_df2 <- rename(ozone_airq_df2, 
                 County_Name = `County Name` ,  State_Name = `State Name` ,  CBSA_Name = `CBSA Name`, dateL = `Date Local`, Site_Num = `Site Num`
                 )

Work horses of data manipulation

Order

This dataset has repeated observations per monitoring station. It would be nice if they were rearranged in a nested fashion, i.e. states | counties | Monitoring Station | Date

select(arrange(ozone_airq_df2, stcofips, desc(dateL)), stcofips, dateL, AQI) #select is only to demonstrate
# # A tibble: 402,501 x 3
#    stcofips dateL        AQI
#    <chr>    <date>     <dbl>
#  1 01003    2017-10-31    45
#  2 01003    2017-10-30    38
#  3 01003    2017-10-28    24
#  4 01003    2017-10-27    32
#  5 01003    2017-10-26    43
#  6 01003    2017-10-25    35
#  7 01003    2017-10-24    36
#  8 01003    2017-10-23    31
#  9 01003    2017-10-22    27
# 10 01003    2017-10-21    29
# # ... with 402,491 more rows

We take advantage of the fact that FIPS are arranged in a natural order. Otherwise we could also do

select(arrange(ozone_airq_df2, State_Name, County_Name, desc(dateL)), stcofips, dateL, AQI) #select is only to demonstrate
# # A tibble: 402,501 x 3
#    stcofips dateL        AQI
#    <chr>    <date>     <dbl>
#  1 01003    2017-10-31    45
#  2 01003    2017-10-30    38
#  3 01003    2017-10-28    24
#  4 01003    2017-10-27    32
#  5 01003    2017-10-26    43
#  6 01003    2017-10-25    35
#  7 01003    2017-10-24    36
#  8 01003    2017-10-23    31
#  9 01003    2017-10-22    27
# 10 01003    2017-10-21    29
# # ... with 402,491 more rows
…
Use the %>% operator to rewrite the above commands. Note that you can use the pipe operator even when a function has multiple arguments. Use the help resources to understand how to write code using the pipe operator in multiple situations. (e.g. passing the argument in the second position of the function.)

Print the top 10 AQI values and their corresponding sites and dates.

Mutate

Mutate creates new variables out of old ones. The key functions are mutate and mutate_*. mutate_* will let us apply the same function to multiple columns that are seleted. You’ll want to use mutate just about any time you want to create a new variable in your data frame or alter and overwrite an existing variable.

# Convert Longitude and Latitude to radians
mutate(ozone_airq_df2, 
                Latitude_rad = pi * Latitude / 180,
                Longitude_rad = pi * Longitude / 180) %>%
  select(contains('tude'))
# # A tibble: 402,501 x 4
#    Latitude Longitude Latitude_rad Longitude_rad
#       <dbl>     <dbl>        <dbl>         <dbl>
#  1     30.5     -87.9        0.532         -1.53
#  2     30.5     -87.9        0.532         -1.53
#  3     30.5     -87.9        0.532         -1.53
#  4     30.5     -87.9        0.532         -1.53
#  5     30.5     -87.9        0.532         -1.53
#  6     30.5     -87.9        0.532         -1.53
#  7     30.5     -87.9        0.532         -1.53
#  8     30.5     -87.9        0.532         -1.53
#  9     30.5     -87.9        0.532         -1.53
# 10     30.5     -87.9        0.532         -1.53
# # ... with 402,491 more rows

# or do this.

mutate_at(ozone_airq_df2, vars(contains("tude")), list(rad = ~(. /180 * pi))) %>% select(contains('tude'))
# # A tibble: 402,501 x 4
#    Latitude Longitude Latitude_rad Longitude_rad
#       <dbl>     <dbl>        <dbl>         <dbl>
#  1     30.5     -87.9        0.532         -1.53
#  2     30.5     -87.9        0.532         -1.53
#  3     30.5     -87.9        0.532         -1.53
#  4     30.5     -87.9        0.532         -1.53
#  5     30.5     -87.9        0.532         -1.53
#  6     30.5     -87.9        0.532         -1.53
#  7     30.5     -87.9        0.532         -1.53
#  8     30.5     -87.9        0.532         -1.53
#  9     30.5     -87.9        0.532         -1.53
# 10     30.5     -87.9        0.532         -1.53
# # ... with 402,491 more rows
…
Exercise

Calculate the distance to the Center of the US (39.8333333,-98.585522 (in Kansas)) from each site. Vincenty formula for great circle distances in by multiplying 6371 (radius of earth in km) with the following quantity

$$atan(\frac{((cos(lat_2).sin(lon_2-lon_1))^2) + (cos(lat_1).sin(lat_2)-sin(lat_1).cos(lat_2).cos(lon_2-lon_1))^2)^{0.5}}{sin(lat_1).sin(lat_2) + cos(lat_1).cos(lat_2).cos(lon_2-lon_1)}) $$

Mind the issue of radians and degrees to the trigonometric functions and the parenthesis

Filter

Sometimes instead of subsetting columns, you want to subset rows. Filter is an useful command for these.

filter(ozone_airq_df2, stcofips == "06037") #Los Angeles County
# # A tibble: 4,574 x 10
#    stcofips Site_Num Latitude Longitude dateL      State_Name County_Name
#    <chr>    <chr>       <dbl>     <dbl> <date>     <chr>      <chr>      
#  1 06037    0002         34.1     -118. 2017-01-01 California Los Angeles
#  2 06037    0002         34.1     -118. 2017-01-02 California Los Angeles
#  3 06037    0002         34.1     -118. 2017-01-03 California Los Angeles
#  4 06037    0002         34.1     -118. 2017-01-04 California Los Angeles
#  5 06037    0002         34.1     -118. 2017-01-05 California Los Angeles
#  6 06037    0002         34.1     -118. 2017-01-06 California Los Angeles
#  7 06037    0002         34.1     -118. 2017-01-07 California Los Angeles
#  8 06037    0002         34.1     -118. 2017-01-08 California Los Angeles
#  9 06037    0002         34.1     -118. 2017-01-09 California Los Angeles
# 10 06037    0002         34.1     -118. 2017-01-10 California Los Angeles
# # ... with 4,564 more rows, and 3 more variables: CBSA_Name <chr>, AQI <dbl>,
# #   SiteID <chr>

Group By

Even though we rearranged the data, we did not yet split it to calculate group summaries. For example if you wanted to find out which monitoring stations had readings for less than 30 days you could do the following.

group_by(ozone_airq_df2, SiteID) %>%
  filter(n() < 30)
# # A tibble: 43 x 10
# # Groups:   SiteID [4]
#    stcofips Site_Num Latitude Longitude dateL      State_Name County_Name
#    <chr>    <chr>       <dbl>     <dbl> <date>     <chr>      <chr>      
#  1 17083    0117         39.1     -90.3 2017-10-03 Illinois   Jersey     
#  2 17083    0117         39.1     -90.3 2017-10-04 Illinois   Jersey     
#  3 17083    0117         39.1     -90.3 2017-10-05 Illinois   Jersey     
#  4 17083    0117         39.1     -90.3 2017-10-06 Illinois   Jersey     
#  5 17083    0117         39.1     -90.3 2017-10-07 Illinois   Jersey     
#  6 17083    0117         39.1     -90.3 2017-10-08 Illinois   Jersey     
#  7 17083    0117         39.1     -90.3 2017-10-09 Illinois   Jersey     
#  8 17083    0117         39.1     -90.3 2017-10-10 Illinois   Jersey     
#  9 17083    0117         39.1     -90.3 2017-10-11 Illinois   Jersey     
# 10 17083    0117         39.1     -90.3 2017-10-12 Illinois   Jersey     
# # ... with 33 more rows, and 3 more variables: CBSA_Name <chr>, AQI <dbl>,
# #   SiteID <chr>

Group_by is quite powerful to calculate within subgroup summaries and use it with mutate to change each row. For example, we can calculate max AQI of all the monitors in a county for the day

group_by(ozone_airq_df2, stcofips, dateL) %>%
  summarize(maxAQI=max(AQI))
# # A tibble: 242,122 x 3
# # Groups:   stcofips [786]
#    stcofips dateL      maxAQI
#    <chr>    <date>      <dbl>
#  1 01003    2017-02-28     19
#  2 01003    2017-03-01     36
#  3 01003    2017-03-02     42
#  4 01003    2017-03-03     48
#  5 01003    2017-03-04     49
#  6 01003    2017-03-05     48
#  7 01003    2017-03-06     45
#  8 01003    2017-03-07     44
#  9 01003    2017-03-08     44
# 10 01003    2017-03-09     44
# # ... with 242,112 more rows
…
county_summary_df
# # A tibble: 786 x 7
#    stcofips AQIgt100 numDays percAQIgt100 State_Name County_Name CBSA_Name      
#    <chr>       <int>   <int>        <dbl> <chr>      <chr>       <chr>          
#  1 01003           2     235      0.00851 Alabama    Baldwin     Daphne-Fairhop~
#  2 01033           0     246      0       Alabama    Colbert     Florence-Muscl~
#  3 01049           0     359      0       Alabama    DeKalb      Fort Payne, AL 
#  4 01051           0     230      0       Alabama    Elmore      Montgomery, AL 
#  5 01055           0     245      0       Alabama    Etowah      Gadsden, AL    
#  6 01069           0     245      0       Alabama    Houston     Dothan, AL     
#  7 01073           2     360      0.00556 Alabama    Jefferson   Birmingham-Hoo~
#  8 01089           1     246      0.00407 Alabama    Madison     Huntsville, AL 
#  9 01097           3     241      0.0124  Alabama    Mobile      Mobile, AL     
# 10 01101           0     242      0       Alabama    Montgomery  Montgomery, AL 
# # ... with 776 more rows
…
