Scraping Craigslist Posts | Nikhil Kaza
…
latlongs
# # A tibble: 120 × 3
#    `data-latitude` `data-longitude` `data-accuracy`
#              <dbl>            <dbl>           <dbl>
#  1            42.2            -71.2              22
#  2            42.1            -71.2              22
#  3            42.2            -71.0              10
#  4            42.5            -71.2              22
#  5            42.4            -71.2              10
#  6            42.5            -71.0              22
#  7            42.5            -71.4              22
#  8            42.4            -71.0              10
#  9            42.4            -71.0              22
# 10            42.4            -71.1              10
# # ℹ 110 more rows
…
  addresses_geocode <- addresses %>%
    geocode_combine(
      queries = list(list(method = 'census'), list(method = 'arcgis')),
      global_params = list(address = 'full_addr'), cascade = TRUE)

# Now Check to see if the distances between lat long and craigslist lat long 

craigslist_table <- cbind(ids, titles, urls, latlongs, prices) %>% 
                    as_tibble

craigslist_table <- craigslist_table %>% 
  left_join(addresses_geocode, by=c("ids" = "pid"))

craigslist_table
# # A tibble: 120 × 12
#    ids      titles urls  `data-latitude` `data-longitude` `data-accuracy` prices
#    <chr>    <chr>  <chr>           <dbl>            <dbl>           <dbl>  <dbl>
#  1 7795984… Worki… http…            42.2            -71.2              22   3216
#  2 7795983… 9 ft … http…            42.1            -71.2              22   3124
#  3 7795982… Air C… http…            42.2            -71.0              10   3419
#  4 7795982… Build… http…            42.5            -71.2              22   2870
#  5 7795981… Tile … http…            42.4            -71.2              10   3225
#  6 7795979… Air c… http…            42.5            -71.0              22   3333
#  7 7795978… Wood … http…            42.5            -71.4              22   2350
#  8 7795978… Stora… http…            42.4            -71.0              10   3100
#  9 7795936… 4 bed… http…            42.4            -71.0              22   4500
# 10 7795912… Davis… http…            42.4            -71.1              10   3200
# # ℹ 110 more rows
# # ℹ 5 more variables: title <chr>, full_addr <chr>, lat <dbl>, long <dbl>,
# #   query <chr>
…
