Geospatial Data in R | Nikhil Kaza
…
tripdata <- here("tutorials_datasets","nycbikeshare", "201806-citibike-tripdata.csv") %>% read_csv()#Change the file path to suit your situation.
tripdata <- rename(tripdata,                         #rename column names to get rid of the space
                   Slat = `start station latitude`,
                   Slon = `start station longitude`,
                   Elat = `end station latitude`,
                   Elon = `end station longitude`,
                   Sstid = `start station id`,
                   Estid = `end station id`,
                   Estname = `end station name`,
                   Sstname = `start station name`

)

tripdata
# # A tibble: 1,953,052 x 16
#    tripduration starttime           stoptime            Sstid Sstname  Slat
#           <dbl> <dttm>              <dttm>              <dbl> <chr>   <dbl>
#  1          569 2018-06-01 01:57:20 2018-06-01 02:06:50    72 W 52 S…  40.8
#  2          480 2018-06-01 02:02:42 2018-06-01 02:10:43    72 W 52 S…  40.8
#  3          692 2018-06-01 02:04:23 2018-06-01 02:15:55    72 W 52 S…  40.8
#  4          664 2018-06-01 03:00:55 2018-06-01 03:11:59    72 W 52 S…  40.8
#  5          818 2018-06-01 06:04:54 2018-06-01 06:18:32    72 W 52 S…  40.8
#  6          753 2018-06-01 06:11:52 2018-06-01 06:24:26    72 W 52 S…  40.8
#  7          687 2018-06-01 07:15:15 2018-06-01 07:26:42    72 W 52 S…  40.8
#  8          619 2018-06-01 07:40:02 2018-06-01 07:50:22    72 W 52 S…  40.8
#  9          819 2018-06-01 07:43:01 2018-06-01 07:56:41    72 W 52 S…  40.8
# 10          335 2018-06-01 07:49:47 2018-06-01 07:55:23    72 W 52 S…  40.8
# # … with 1,953,042 more rows, and 10 more variables: Slon <dbl>, Estid <dbl>,
# #   Estname <chr>, Elat <dbl>, Elon <dbl>, bikeid <dbl>,
# #   name_localizedValue0 <chr>, usertype <chr>, `birth year` <dbl>,
# #   gender <dbl>
…
 (Bikedepots <- station_loc[grep(glob2rx("*CBS*"), station_loc$Stname),]$Stid)
# [1] 3240 3432 3468 3485 3245

Let’s examine some other longer trips (say more than 2 hrs)

tripdata %>%
  select(Sstid, Estid, tripduration) %>%
  filter(tripduration >= 60*60*2) %>%
  group_by(Sstid, Estid) %>%
  summarise(triptots = n(),
            averagetripdur = mean(tripduration)
            ) %>%
  arrange(desc(triptots))
# # A tibble: 5,260 x 4
# # Groups:   Sstid [726]
#    Sstid Estid triptots averagetripdur
#    <dbl> <dbl>    <int>          <dbl>
#  1   281   281       59         10406.
#  2  2006  2006       40          9541.
#  3   281  2006       31          9561 
#  4  3529  3529       29         45906.
#  5  3254  3254       26         13924.
#  6  3423  3423       22         22284.
#  7   281   499       20          8052.
#  8  3182  3182       18         20166 
#  9   514   514       16         10276.
# 10   387   387       15          9569 
# # … with 5,250 more rows
…
It might be useful to think about which station locations are popular to start the trips. We will apply the data summarisation techniques discussed in earlier posts and relatively easily compute and visualise the dataset.

library(lubridate)  #useful for date time functions

numtrips_start_station <- diffdesttrips %>%
  mutate(day_of_week = wday(starttime, label=TRUE, week_start=1)) %>% #create weekday variable from start time
  group_by(Sstid, day_of_week, usertype) %>%
  summarise(Slon = first(Slon),
            Slat = first(Slat),
            totaltrips = n()
            )

numtrips_start_station %>%
  arrange(desc(totaltrips))
# # A tibble: 10,516 x 6
# # Groups:   Sstid, day_of_week [5,282]
#    Sstid day_of_week usertype    Slon  Slat totaltrips
#    <dbl> <ord>       <fct>      <dbl> <dbl>      <int>
#  1   519 Fri         Subscriber -74.0  40.8       2726
#  2   519 Mon         Subscriber -74.0  40.8       2703
#  3   519 Tue         Subscriber -74.0  40.8       2452
#  4   497 Fri         Subscriber -74.0  40.7       2059
#  5   435 Fri         Subscriber -74.0  40.7       1964
#  6   519 Wed         Subscriber -74.0  40.8       1953
#  7   402 Fri         Subscriber -74.0  40.7       1940
#  8   492 Fri         Subscriber -74.0  40.8       1938
#  9   426 Fri         Subscriber -74.0  40.7       1925
# 10   402 Tue         Subscriber -74.0  40.7       1872
# # … with 10,506 more rows
…
While much can be accomplished on a table which has some geometry columns, it should come as no suprise that spatial objects are incredibly useful. For example, selecting all points that fall within 1km of each observation is more complicated than filtering on values.

It is straightfoward to convert a dataframe into a sf object using st_as_sf function It is also straightforward and faster to read an external geospatial file into sf object using read_st. We will see examples of that later on.

library(sf)

 numtrips_start_station <- st_as_sf(numtrips_start_station, coords = c('Slon', 'Slat'), crs = "+init=epsg:4326") # WGS84 coordinate system
 
 numtrips_start_station
# Simple feature collection with 5282 features and 4 fields
# geometry type:  POINT
# dimension:      XY
# bbox:           xmin: -74.02535 ymin: 40.6554 xmax: -73.90774 ymax: 40.81439
# CRS:            +init=epsg:4326
# # A tibble: 5,282 x 5
# # Groups:   day_of_week [7]
#    Sstid day_of_week totaltrips outlier_def             geometry
#  * <dbl> <ord>            <int> <chr>                <POINT [°]>
#  1    72 Mon                623 Normal      (-73.99393 40.76727)
#  2    72 Tue                672 Normal      (-73.99393 40.76727)
#  3    72 Wed                584 Normal      (-73.99393 40.76727)
#  4    72 Thu                563 Normal      (-73.99393 40.76727)
#  5    72 Fri                791 Normal      (-73.99393 40.76727)
#  6    72 Sat                738 Normal      (-73.99393 40.76727)
#  7    72 Sun                486 Normal      (-73.99393 40.76727)
#  8    79 Mon                410 Normal      (-74.00667 40.71912)
#  9    79 Tue                495 Normal      (-74.00667 40.71912)
# 10    79 Wed                509 Normal      (-74.00667 40.71912)
# # … with 5,272 more rows
…
st_distance(daytrips)[1:4,1:4]
# Units: [m]
#          [,1]     [,2]     [,3]     [,4]
# [1,]    0.000 5454.888 6251.852 9385.186
# [2,] 5454.888    0.000 1038.971 4683.323
# [3,] 6251.852 1038.971    0.000 3644.690
# [4,] 9385.186 4683.323 3644.690    0.000

st_buffer(st_transform(daytrips, crs="+init=epsg:26917"), dist=500)
# Simple feature collection with 754 features and 4 fields
# geometry type:  POLYGON
# dimension:      XY
# bbox:           xmin: 1089080 ymin: 4523556 xmax: 1099251 ymax: 4542615
# CRS:            +init=epsg:26917
# # A tibble: 754 x 5
# # Groups:   day_of_week [1]
#    Sstid day_of_week totaltrips outlier_def                             geometry
#  * <dbl> <ord>            <int> <chr>                              <POLYGON [m]>
#  1    72 Tue                672 Normal      ((1092006 4536601, 1092006 4536575,…
#  2    79 Tue                495 Normal      ((1091359 4531164, 1091358 4531137,…
#  3    82 Tue                162 Normal      ((1091979 4530325, 1091978 4530299,…
#  4    83 Tue                251 Normal      ((1094239 4527448, 1094238 4527422,…
#  5   119 Tue                 39 Low         ((1093985 4528799, 1093984 4528773,…
#  6   120 Tue                182 Normal      ((1095655 4527891, 1095654 4527864,…
#  7   127 Tue               1220 High        ((1091240 4532564, 1091239 4532538,…
#  8   128 Tue               1035 Normal      ((1091600 4532076, 1091599 4532050,…
#  9   143 Tue                392 Normal      ((1092720 4528284, 1092719 4528258,…
# 10   144 Tue                111 Normal      ((1093740 4529038, 1093739 4529011,…
# # … with 744 more rows
…
sapply(fastest_od_routes, is.null) %>% sum()

fastest_od_routes2 <- do.call(rbind, fastest_od_routes)
writeOGR(fastest_od_routes2, dsn=".", layer="od_cycling_routes", driver="ESRI Shapefile")

Let’s read in the data using read_sf and visualise it. We will merge the spatial route information with the OD trip information from earlier.

(od_fastest_routes <- here("tutorials_datasets","nycbikeshare", "od_cycling_routes.shp") %>% read_sf()) 
# Simple feature collection with 188337 features and 4 fields
# geometry type:  LINESTRING
# dimension:      XY
# bbox:           xmin: -74.03213 ymin: 40.64316 xmax: -73.90463 ymax: 40.81573
# geographic CRS: WGS 84
# # A tibble: 188,337 x 5
#      src   dst duration distance                                        geometry
#    <int> <int>    <dbl>    <dbl>                                <LINESTRING [°]>
#  1    72   173     5.47     1.29 (-73.99397 40.76721, -73.99372 40.76711, -73.9…
#  2    72   477     8.56     1.92 (-73.99397 40.76721, -73.99372 40.76711, -73.9…
#  3    72   457     6.51     1.42 (-73.99397 40.76721, -73.99372 40.76711, -73.9…
#  4    72   379    12.3      2.83 (-73.99397 40.76721, -73.99372 40.76711, -73.9…
#  5    72   459    13.3      2.60 (-73.99397 40.76721, -73.99372 40.76711, -73.9…
#  6    72   446    13.9      3.36 (-73.99397 40.76721, -73.99372 40.76711, -73.9…
#  7    72   212    14.9      3.21 (-73.99397 40.76721, -73.99372 40.76711, -73.9…
#  8    72   458     9.04     2.02 (-73.99397 40.76721, -73.99372 40.76711, -73.9…
#  9    72   514     6.41     1.32 (-73.99397 40.76721, -73.99372 40.76711, -73.9…
# 10    72   465     8.66     2.05 (-73.99397 40.76721, -73.99372 40.76711, -73.9…
# # … with 188,327 more rows
(numtrips <- inner_join(numtrips, od_fastest_routes, by=c('Sstid' = 'src', "Estid"='dst')) %>% st_sf())
# Simple feature collection with 1054248 features and 13 fields
# geometry type:  LINESTRING
# dimension:      XY
# bbox:           xmin: -74.03213 ymin: 40.64316 xmax: -73.90463 ymax: 40.81573
# geographic CRS: WGS 84
# # A tibble: 1,054,248 x 14
# # Groups:   Sstid, Estid, day_of_week, time_of_day [987,815]
#    Sstid Estid day_of_week time_of_day usertype  Slon  Slat  Elon  Elat
#    <dbl> <dbl> <ord>       <fct>       <fct>    <dbl> <dbl> <dbl> <dbl>
#  1    72    79 Mon         4PM - 8PM   Subscri… -74.0  40.8 -74.0  40.7
#  2    72    79 Tue         6AM - 10AM  Subscri… -74.0  40.8 -74.0  40.7
#  3    72    79 Thu         4PM - 8PM   Subscri… -74.0  40.8 -74.0  40.7
#  4    72    79 Fri         10AM - 4PM  Subscri… -74.0  40.8 -74.0  40.7
#  5    72    79 Sat         6AM - 10AM  Subscri… -74.0  40.8 -74.0  40.7
#  6    72    79 Sat         10AM - 4PM  Subscri… -74.0  40.8 -74.0  40.7
#  7    72    79 Sun         6AM - 10AM  Customer -74.0  40.8 -74.0  40.7
#  8    72   127 Mon         6AM - 10AM  Subscri… -74.0  40.8 -74.0  40.7
#  9    72   127 Mon         10AM - 4PM  Subscri… -74.0  40.8 -74.0  40.7
# 10    72   127 Tue         6AM - 10AM  Subscri… -74.0  40.8 -74.0  40.7
# # … with 1,054,238 more rows, and 5 more variables: totaltrips <int>,
# #   aveduration <dbl>, duration <dbl>, distance <dbl>, geometry <LINESTRING
# #   [°]>
…
What differences can we observe, if we were facet by type of user?

Areal Data

More often than not, we use areal data to visualise ane explore the spatial distribution of a variable. Partly because visualisations are easier and partly because other ancillary data is associated with polygons. Polygons are simply areas enclosed by a line where the start and end of the line string are the same. A valid polygon is the one, whose boundary does not cross itself, no overlapping rings etc. Holes are allowed, as are collections of polygons for a feature.

For this post, I am going to use the census blocks for New York city from 2010. Population data is available from American Community Survey for 2016 for blockgroups. Since blocks are perfectly nested within blockgroup, we can simply extract the blockgroup id from blocks and merge with the population data

(blks <- here("tutorials_datasets","nycbikeshare", "nyc_blks.shp") %>% read_sf() )
# Simple feature collection with 39148 features and 17 fields
# geometry type:  MULTIPOLYGON
# dimension:      XY
# bbox:           xmin: -74.25909 ymin: 40.4774 xmax: -73.70027 ymax: 40.91758
# geographic CRS: NAD83
# # A tibble: 39,148 x 18
#    STATEFP10 COUNTYFP10 TRACTCE10 BLOCKCE10 GEOID10 NAME10 MTFCC10 UR10  UACE10
#    <chr>     <chr>      <chr>     <chr>     <chr>   <chr>  <chr>   <chr> <chr> 
#  1 36        061        029900    2020      360610… Block… G5040   U     63217 
#  2 36        061        029300    1000      360610… Block… G5040   U     63217 
#  3 36        061        030700    2001      360610… Block… G5040   U     63217 
#  4 36        061        029900    2005      360610… Block… G5040   U     63217 
#  5 36        061        001501    1009      360610… Block… G5040   U     63217 
#  6 36        061        027900    2000      360610… Block… G5040   U     63217 
#  7 36        061        027700    2001      360610… Block… G5040   U     63217 
#  8 36        061        027900    6001      360610… Block… G5040   U     63217 
#  9 36        061        026900    6000      360610… Block… G5040   U     63217 
# 10 36        061        027700    1002      360610… Block… G5040   U     63217 
# # … with 39,138 more rows, and 9 more variables: UATYP10 <chr>,
# #   FUNCSTAT10 <chr>, ALAND10 <chr>, AWATER10 <chr>, INTPTLAT10 <chr>,
# #   INTPTLON10 <chr>, COUNTYFP <chr>, STATEFP <chr>, geometry <MULTIPOLYGON
# #   [°]>
…
While the above looks fine, it would be good to look under the hood. Summarize automatically uses st_union to summarize geometries. This is usually a good idea. However, on occasions, it might results in inconsistent geometries and therefore the geometry is cast to higher level type such as “GEOMETRY” instead of “POLYGON” or “MULTIPOLYGON”. So we explicitly cast it to MULTIPOLYGON as we should expect all Block groups to be polygons.

(bg <- bg %>% st_cast("MULTIPOLYGON"))
# Simple feature collection with 6287 features and 1 field
# geometry type:  MULTIPOLYGON
# dimension:      XY
# bbox:           xmin: -74.25589 ymin: 40.49593 xmax: -73.70027 ymax: 40.91528
# CRS:            +init=epsg:4326
# # A tibble: 6,287 x 2
#    BGID10                                                               geometry
#    <chr>                                                      <MULTIPOLYGON [°]>
#  1 3600500010… (((-73.88843 40.79805, -73.8879 40.79831, -73.88385 40.79543, -7…
#  2 3600500020… (((-73.85819 40.81381, -73.85772 40.81336, -73.85821 40.8133, -7…
#  3 3600500020… (((-73.85761 40.80724, -73.85745 40.8069, -73.85828 40.80683, -7…
#  4 3600500020… (((-73.85632 40.80262, -73.85707 40.80412, -73.85781 40.80562, -…
#  5 3600500040… (((-73.85562 40.81061, -73.85613 40.81141, -73.85716 40.81282, -…
#  6 3600500040… (((-73.85477 40.80941, -73.85531 40.80933, -73.85544 40.80987, -…
#  7 3600500040… (((-73.85363 40.80296, -73.85632 40.80262, -73.85644 40.80534, -…
#  8 3600500040… (((-73.84629 40.81155, -73.84609 40.81024, -73.84707 40.81024, -…
#  9 3600500160… (((-73.86061 40.8195, -73.86153 40.81938, -73.86203 40.82151, -7…
# 10 3600500160… (((-73.85972 40.81527, -73.86055 40.81515, -73.86148 40.81503, -…
# # … with 6,277 more rows
…
