Basic Raster Operations in R | Nikhil Kaza
…
tract_geoid <- tibble(ID = 1:nrow(durham_tracts_sf), GEOID10 = durham_tracts_sf$GEOID10)

lc_tracts <- terra::extract(durham_lc_terra, vect(durham_tracts_sf)) %>% 
              mutate(Layer_1 = paste0("lc", Layer_1)) %>% # This is an easy way to convert to characters and therefore to factors. Layer_1 and ID are columns in the tibble that results from from terra::extract
              group_by(ID, Layer_1)  %>%
              summarize(count = n()) 

lc_tracts_tbl <- lc_tracts %>% 
                 ungroup() %>% # Groups are no longer necessary
                  pivot_wider(names_from = Layer_1, values_from = count) %>%
                  left_join(tract_geoid)

lc_tracts_tbl
# # A tibble: 60 × 17
#       ID  lc11  lc21  lc22  lc23  lc24  lc41  lc42  lc43  lc52  lc71  lc81  lc90
#    <dbl> <int> <int> <int> <int> <int> <int> <int> <int> <int> <int> <int> <int>
#  1     1    35  3994  2233   790   176  1373  1139   224    91   175    72     7
#  2     2     9  4099   633   276    22   371   308    79     1    18    NA   854
#  3     3    NA   429   618   249   253    NA    NA    NA    NA    NA    NA    NA
#  4     4  3907 12486  2371   723   209 85032 25850  8729  5115 11342 39446  7882
#  5     5    NA   690   950   859   157    51    17    NA    NA    NA    NA    NA
#  6     6  9776  4085   755   412    76 25189 15132  4238  3421  5364  4986  1674
#  7     7    NA  2517   566   458   156    41    NA    35    NA     7    NA    NA
#  8     8   914  5732  1114   212     5 12414  2242   919   565  1498  2801  1371
#  9     9   153  6603   731   108    NA 11765  3395  1670   381   952  1489    75
# 10    10   130  5958  1996  1387   224  3112  2519   410   105   369   308  3490
# # ℹ 50 more rows
# # ℹ 4 more variables: lc31 <int>, lc82 <int>, lc95 <int>, GEOID10 <chr>
…
