Analysing Free Form Text | Nikhil Kaza
…
"[^a-zA-Z\\.@_\\d ]"

Tokenization, Stemming & Lemmatization

Tokenization

Given a character sequence, tokenisation is the task of chopping it up into pieces, called tokens , perhaps at the same time throwing away certain characters, such as punctuation. In the simplest cases, tokens are simply words. However, there are number of rules that you may want to employ that would work in certain instances and would not work in others. For example, aren't can be tokenised as are and n't or aren and t or as arent, depending on which rules you want to use.

library(tidytext)

data(stop_words)

stop_words
# # A tibble: 1,149 x 2
#    word        lexicon
#    <chr>       <chr>  
#  1 a           SMART  
#  2 a's         SMART  
#  3 able        SMART  
#  4 about       SMART  
#  5 above       SMART  
#  6 according   SMART  
#  7 accordingly SMART  
#  8 across      SMART  
#  9 actually    SMART  
# 10 after       SMART  
# # … with 1,139 more rows
…
library(textdata)
nrc_sentiment <- get_sentiments('nrc')

You can estimate the sentiment of each message by looking at the frequency of words with a particular sentiment using the following code.

body_tokens %>%
      select(word, msg_id)%>%
      mutate(lemm_word = lemmatize_words(word))%>%
     inner_join(nrc_sentiment, by=c('lemm_word' = 'word')) %>%
     group_by(msg_id, sentiment) %>%
     summarize(count = n()) %>%
     mutate(freq = count/sum(count))%>%
     pivot_wider(id_cols = msg_id, values_from=freq, names_from=sentiment, values_fill = 0) %>%
    top_n(5) 
# # A tibble: 44,609 x 11
# # Groups:   msg_id [44,609]
#    msg_id  anger anticipation disgust   fear    joy negative positive sadness
#    <chr>   <dbl>        <dbl>   <dbl>  <dbl>  <dbl>    <dbl>    <dbl>   <dbl>
#  1 0000b… 0.0423       0.0986  0.0563 0.0423 0.0423   0.183    0.254   0.0563
#  2 00044… 0            0       0      0      0.25     0        0.5     0     
#  3 000c5… 0            0.286   0      0      0        0.0714   0.429   0     
#  4 000cd… 0            0.219   0      0.0312 0.0625   0.0625   0.438   0     
#  5 000ec… 0.231        0.154   0      0.154  0        0.231    0.0769  0.0769
#  6 000ff… 0            0       0      0      0        1        0       0     
#  7 0010c… 0            0.133   0.0667 0.0167 0.0333   0.267    0.367   0.0333
#  8 0011b… 0            0.167   0      0      0.167    0.167    0.25    0     
#  9 00120… 0            0.308   0      0      0        0        0.462   0     
# 10 00121… 0            0.1     0      0.05   0.1      0.1      0.4     0     
# # … with 44,599 more rows, and 2 more variables: surprise <dbl>, trust <dbl>
…
Sentiment140 is an tool that allows you to discover the sentiment of a brand, product, or topic on Twitter. It was created by Alec Go, Richa Bhayani, and Lei Huang, who were Computer Science graduate students at Stanford University.
You can read about their approach in the technical report: Twitter Sentiment Classification using Distant Supervision. There is a package called sentiment in R that uses this API automatically. Since it is an API call, I am demonstrating this only for 400 sentence tokens and summarize by message ids.

library(sentiment)

sentence_tokens %>% 
  top_n(400) %>%
  mutate(sent_sentiment = sentiment::sentiment(sentence)$polarity) %>%
  group_by(msg_id, sent_sentiment) %>%
  dplyr::summarize(count = n()) %>%
  pivot_wider(id_cols = msg_id, values_from=count, names_from=sent_sentiment, values_fill = 0) 
# # A tibble: 355 x 4
# # Groups:   msg_id [355]
#    msg_id                           neutral positive negative
#    <chr>                              <int>    <int>    <int>
#  1 002b9bd5009de4f6bafe7471341d2066       1        0        0
#  2 00327633261bb1280c9e7206cc8c37db       1        0        0
#  3 00365e544ced8ec17585ab51b6ea2161       1        0        0
#  4 00f1e99a692f4de27db2bd1bea3d0244       1        0        0
#  5 02400eb6778a994b7171c3c0c688f6d8       0        1        0
#  6 0354d57088dedf04338053fc5b2c6956       1        0        0
#  7 03a3c804d49671faaf12a56f78eda3db       2        0        0
#  8 03beb0edc5ee1fc6301872775e25da8b       1        0        0
#  9 04c7afa8a7ef186903e68d4c4a921f8b       0        1        0
# 10 05130b245ceebb5447d041b5a6b8f923       1        1        0
# # … with 345 more rows
…
