Machine Learning for Remote Sensing | Nikhil Kaza
…
raster_sample
# # A tibble: 10,623 × 12
#     Blue Green     NDVI   NIR   mean variance homogeneity contrast dissimilarity
#    <int> <int>    <dbl> <int>  <dbl>    <dbl>       <dbl>    <dbl>         <dbl>
#  1  5508  5036  0.0595   4248 0.0764     5.85       0.778    0.444         0.444
#  2  5508  5036  0.0595   4248 0.0764     5.85       0.778    0.444         0.444
#  3  5381  4765  0.181    4957 0.0625     3.75       1        0             0    
#  4  5381  4765  0.181    4957 0.0625     3.75       1        0             0    
#  5  6428  5907  0.0188   5062 0.118     14.3        0.889    0.222         0.222
#  6  6428  5907  0.0188   5062 0.118     14.3        0.889    0.222         0.222
#  7  5970  5277  0.00332  4082 0.0955     9.19       0.944    0.111         0.111
#  8  5970  5277  0.00332  4082 0.0955     9.19       0.944    0.111         0.111
#  9  6135  5422 -0.0239   4199 0.0955     8.44       0.944    0.111         0.111
# 10  6135  5422 -0.0239   4199 0.0955     8.44       0.944    0.111         0.111
# # … with 10,613 more rows, and 3 more variables: entropy <dbl>,
# #   second_moment <dbl>, landuse <fct>
…
