Matching Messy Texts | Nikhil Kaza
…
warn_min <- pm_postal_parse(warn_min)

In this instance only state present in the dataset is NC. First we need to create a dictonary in case NC is spelled out in different ways such as NORTH CAROLINA or NC or N CAROLINA. Fortunately, this dataset only contains NC. If not, use pm_append to add different instances of the state name to the dictionary.

ncDict <- pm_dictionary(locale = "us", type = "state", filter = "NC", case = "upper")
ncDict
# # A tibble: 2 x 2
#   state.output state.input   
#   <chr>        <chr>         
# 1 NC           NC            
# 2 NC           NORTH CAROLINA

(warn_min <- pm_state_parse(warn_min, dict=ncDict))
# # A tibble: 91 x 4
#    pm.uid pm.address                          pm.state pm.zip
#     <int> <chr>                               <chr>    <chr> 
#  1      1 895 WEST TRADE STREET CHARLOTTE     NC       28202 
#  2      2 5501 JOSH BIRMINGAHM PKWY CHARLOTTE NC       28208 
#  3      3 4800 HANGAR ROAD CHARLOTTE          NC       28208 
#  4      4 5020 HANGAR ROAD CHARLOTTE          NC       28208 
#  5      5 4716 YORKMONT ROAD CHARLOTTE        NC       28208 
#  6      6 5501 JOSH BIRMINGHAM PKWY CHARLOTTE NC       28208 
#  7      7 5000 HANGAR ROAD CHARLOTTE          NC       28208 
#  8      8 100 WEST TRADE STREET CHARLOTTE     NC       28202 
#  9      9 5501 CARNEGIE BLVD CHARLOTTE        NC       28209 
# 10     10 2200 REXFORD ROAD CHARLOTTE         NC       28211 
# # … with 81 more rows

ncCityDict <- pm_dictionary(locale = "us", type = "city", filter = "NC", case = "upper")
(warn_min <- pm_city_parse(warn_min, dictionary = ncCityDict))
# # A tibble: 91 x 5
#    pm.uid pm.address                pm.city   pm.state pm.zip
#     <int> <chr>                     <chr>     <chr>    <chr> 
#  1      1 895 WEST TRADE STREET     CHARLOTTE NC       28202 
#  2      2 5501 JOSH BIRMINGAHM PKWY CHARLOTTE NC       28208 
#  3      3 4800 HANGAR ROAD          CHARLOTTE NC       28208 
#  4      4 5020 HANGAR ROAD          CHARLOTTE NC       28208 
#  5      5 4716 YORKMONT ROAD        CHARLOTTE NC       28208 
#  6      6 5501 JOSH BIRMINGHAM PKWY CHARLOTTE NC       28208 
#  7      7 5000 HANGAR ROAD          CHARLOTTE NC       28208 
#  8      8 100 WEST TRADE STREET     CHARLOTTE NC       28202 
#  9      9 5501 CARNEGIE BLVD        CHARLOTTE NC       28209 
# 10     10 2200 REXFORD ROAD         CHARLOTTE NC       28211 
# # … with 81 more rows
…
